ETP2_Moodlight/ETP1/HW/Testplan/images/ALL0001/F0001CH1.CSV

Record Length,2.500000e+03,,  -0.000025000000,  24.00000,
Sample Interval,2.000000e-08,,  -0.000024980000,  24.00000,
Trigger Point,1.250000000000e+03,,  -0.000024960000,  24.40000,
,,,  -0.000024940000,  24.20000,
,,,  -0.000024920000,  24.00000,
,,,  -0.000024900000,  24.00000,
Source,CH1,,  -0.000024880000,  23.60000,
Vertical Units,V,,  -0.000024860000,  24.00000,
Vertical Scale,5.000000e+00,,  -0.000024840000,  24.00000,
Vertical Offset,-1.500000e+01,,  -0.000024820000,  23.80000,
Horizontal Units,s,,  -0.000024800000,  24.00000,
Horizontal Scale,5.000000e-06,,  -0.000024780000,  23.80000,
Pt Fmt,Y,,  -0.000024760000,  24.00000,
Yzero,0.000000e+00,,  -0.000024740000,  24.20000,
Probe Atten,1.000000e+00,,  -0.000024720000,  23.80000,
Model Number,TDS2012C,,  -0.000024700000,  23.80000,
Serial Number,C013136,,  -0.000024680000,  23.60000,
Firmware Version,FV:v24.09,,  -0.000024660000,  24.00000,
,,,-00.000024640000,  24.00000,
,,,-00.000024620000,  23.80000,
,,,-00.000024600000,  23.80000,
,,,-00.000024580000,  23.80000,
,,,-00.000024560000,  24.00000,
,,,-00.000024540000,  24.00000,
,,,-00.000024520000,  23.80000,
,,,-00.000024500000,  23.80000,
,,,-00.000024480000,  23.80000,
,,,-00.000024460000,  23.80000,
,,,-00.000024440000,  23.60000,
,,,-00.000024420000,  23.80000,
,,,-00.000024400000,  23.80000,
,,,-00.000024380000,  23.40000,
,,,-00.000024360000,  23.80000,
,,,-00.000024340000,  23.60000,
,,,-00.000024320000,  23.60000,
,,,-00.000024300000,  23.40000,
,,,-00.000024280000,  23.80000,
,,,-00.000024260000,  23.80000,
,,,-00.000024240000,  23.80000,
,,,-00.000024220000,  23.60000,
,,,-00.000024200000,  23.40000,
,,,-00.000024180000,  23.40000,
,,,-00.000024160000,  23.60000,
,,,-00.000024140000,  23.40000,
,,,-00.000024120000,  23.40000,
,,,-00.000024100000,  23.60000,
,,,-00.000024080000,  23.80000,
,,,-00.000024060000,  23.80000,
,,,-00.000024040000,  23.40000,
,,,-00.000024020000,  23.60000,
,,,-00.000024000000,  23.60000,
,,,-00.000023980000,  23.60000,
,,,-00.000023960000,  23.60000,
,,,-00.000023940000,  23.40000,
,,,-00.000023920000,  23.40000,
,,,-00.000023900000,  23.60000,
,,,-00.000023880000,  23.60000,
,,,-00.000023860000,  23.80000,
,,,-00.000023840000,  23.40000,
,,,-00.000023820000,  23.60000,
,,,-00.000023800000,  23.60000,
,,,-00.000023780000,  23.40000,
,,,-00.000023760000,  23.60000,
,,,-00.000023740000,  23.40000,
,,,-00.000023720000,  23.40000,
,,,-00.000023700000,  23.80000,
,,,-00.000023680000,  23.80000,
,,,-00.000023660000,  23.80000,
,,,-00.000023640000,  23.60000,
,,,-00.000023620000,  23.80000,
,,,-00.000023600000,  23.60000,
,,,-00.000023580000,  23.20000,
,,,-00.000023560000,  23.80000,
,,,-00.000023540000,  23.60000,
,,,-00.000023520000,  23.80000,
,,,-00.000023500000,  23.80000,
,,,-00.000023480000,  23.60000,
,,,-00.000023460000,  22.60000,
,,,-00.000023440000,  23.40000,
,,,-00.000023420000,  24.00000,
,,,-00.000023400000,  23.00000,
,,,-00.000023380000,  24.00000,
,,,-00.000023360000,  25.40000,
,,,-00.000023340000,  24.20000,
,,,-00.000023320000,  24.00000,
,,,-00.000023300000,  24.40000,
,,,-00.000023280000,  24.40000,
,,,-00.000023260000,  24.40000,
,,,-00.000023240000,  25.00000,
,,,-00.000023220000,  24.60000,
,,,-00.000023200000,  24.40000,
,,,-00.000023180000,  24.60000,
,,,-00.000023160000,  24.80000,
,,,-00.000023140000,  24.80000,
,,,-00.000023120000,  25.00000,
,,,-00.000023100000,  25.20000,
,,,-00.000023080000,  25.20000,
,,,-00.000023060000,  25.40000,
,,,-00.000023040000,  25.60000,
,,,-00.000023020000,  25.40000,
,,,-00.000023000000,  25.60000,
,,,-00.000022980000,  26.20000,
,,,-00.000022960000,  25.60000,
,,,-00.000022940000,  25.60000,
,,,-00.000022920000,  25.60000,
,,,-00.000022900000,  25.40000,
,,,-00.000022880000,  25.20000,
,,,-00.000022860000,  25.60000,
,,,-00.000022840000,  25.60000,
,,,-00.000022820000,  25.80000,
,,,-00.000022800000,  25.80000,
,,,-00.000022780000,  25.80000,
,,,-00.000022760000,  26.00000,
,,,-00.000022740000,  26.00000,
,,,-00.000022720000,  25.80000,
,,,-00.000022700000,  25.60000,
,,,-00.000022680000,  25.80000,
,,,-00.000022660000,  26.00000,
,,,-00.000022640000,  25.80000,
,,,-00.000022620000,  25.60000,
,,,-00.000022600000,  25.40000,
,,,-00.000022580000,  25.40000,
,,,-00.000022560000,  25.40000,
,,,-00.000022540000,  25.80000,
,,,-00.000022520000,  25.60000,
,,,-00.000022500000,  25.40000,
,,,-00.000022480000,  25.60000,
,,,-00.000022460000,  25.40000,
,,,-00.000022440000,  25.80000,
,,,-00.000022420000,  25.80000,
,,,-00.000022400000,  25.60000,
,,,-00.000022380000,  25.80000,
,,,-00.000022360000,  25.60000,
,,,-00.000022340000,  25.20000,
,,,-00.000022320000,  25.60000,
,,,-00.000022300000,  25.20000,
,,,-00.000022280000,  25.20000,
,,,-00.000022260000,  25.40000,
,,,-00.000022240000,  25.20000,
,,,-00.000022220000,  25.40000,
,,,-00.000022200000,  25.40000,
,,,-00.000022180000,  25.80000,
,,,-00.000022160000,  25.60000,
,,,-00.000022140000,  25.80000,
,,,-00.000022120000,  25.60000,
,,,-00.000022100000,  25.80000,
,,,-00.000022080000,  26.00000,
,,,-00.000022060000,  25.60000,
,,,-00.000022040000,  25.40000,
,,,-00.000022020000,  25.40000,
,,,-00.000022000000,  25.20000,
,,,-00.000021980000,  25.20000,
,,,-00.000021960000,  25.20000,
,,,-00.000021940000,  25.20000,
,,,-00.000021920000,  25.40000,
,,,-00.000021900000,  25.60000,
,,,-00.000021880000,  25.60000,
,,,-00.000021860000,  25.40000,
,,,-00.000021840000,  25.40000,
,,,-00.000021820000,  25.40000,
,,,-00.000021800000,  25.40000,
,,,-00.000021780000,  25.60000,
,,,-00.000021760000,  25.40000,
,,,-00.000021740000,  25.20000,
,,,-00.000021720000,  25.20000,
,,,-00.000021700000,  25.20000,
,,,-00.000021680000,  25.40000,
,,,-00.000021660000,  25.40000,
,,,-00.000021640000,  25.40000,
,,,-00.000021620000,  25.60000,
,,,-00.000021600000,  25.40000,
,,,-00.000021580000,  25.20000,
,,,-00.000021560000,  25.60000,
,,,-00.000021540000,  25.60000,
,,,-00.000021520000,  25.40000,
,,,-00.000021500000,  25.20000,
,,,-00.000021480000,  25.20000,
,,,-00.000021460000,  25.20000,
,,,-00.000021440000,  25.20000,
,,,-00.000021420000,  25.00000,
,,,-00.000021400000,  25.40000,
,,,-00.000021380000,  25.40000,
,,,-00.000021360000,  25.00000,
,,,-00.000021340000,  25.20000,
,,,-00.000021320000,  25.20000,
,,,-00.000021300000,  25.20000,
,,,-00.000021280000,  25.40000,
,,,-00.000021260000,  25.40000,
,,,-00.000021240000,  25.40000,
,,,-00.000021220000,  25.40000,
,,,-00.000021200000,  25.20000,
,,,-00.000021180000,  25.20000,
,,,-00.000021160000,  25.40000,
,,,-00.000021140000,  25.20000,
,,,-00.000021120000,  25.00000,
,,,-00.000021100000,  25.40000,
,,,-00.000021080000,  25.00000,
,,,-00.000021060000,  25.20000,
,,,-00.000021040000,  25.20000,
,,,-00.000021020000,  25.00000,
,,,-00.000021000000,  25.60000,
,,,-00.000020980000,  25.20000,
,,,-00.000020960000,  25.40000,
,,,-00.000020940000,  25.20000,
,,,-00.000020920000,  25.00000,
,,,-00.000020900000,  25.20000,
,,,-00.000020880000,  25.20000,
,,,-00.000020860000,  25.00000,
,,,-00.000020840000,  25.40000,
,,,-00.000020820000,  25.20000,
,,,-00.000020800000,  25.00000,
,,,-00.000020780000,  25.00000,
,,,-00.000020760000,  25.00000,
,,,-00.000020740000,  25.00000,
,,,-00.000020720000,  25.00000,
,,,-00.000020700000,  25.20000,
,,,-00.000020680000,  25.40000,
,,,-00.000020660000,  25.20000,
,,,-00.000020640000,  25.20000,
,,,-00.000020620000,  25.00000,
,,,-00.000020600000,  25.20000,
,,,-00.000020580000,  25.20000,
,,,-00.000020560000,  25.00000,
,,,-00.000020540000,  25.00000,
,,,-00.000020520000,  25.00000,
,,,-00.000020500000,  24.80000,
,,,-00.000020480000,  25.00000,
,,,-00.000020460000,  25.00000,
,,,-00.000020440000,  25.00000,
,,,-00.000020420000,  25.00000,
,,,-00.000020400000,  25.20000,
,,,-00.000020380000,  25.20000,
,,,-00.000020360000,  25.20000,
,,,-00.000020340000,  25.00000,
,,,-00.000020320000,  25.20000,
,,,-00.000020300000,  25.00000,
,,,-00.000020280000,  24.80000,
,,,-00.000020260000,  24.80000,
,,,-00.000020240000,  25.00000,
,,,-00.000020220000,  24.80000,
,,,-00.000020200000,  25.20000,
,,,-00.000020180000,  24.80000,
,,,-00.000020160000,  25.00000,
,,,-00.000020140000,  25.00000,
,,,-00.000020120000,  25.20000,
,,,-00.000020100000,  25.20000,
,,,-00.000020080000,  25.00000,
,,,-00.000020060000,  24.80000,
,,,-00.000020040000,  25.20000,
,,,-00.000020020000,  25.20000,
,,,-00.000020000000,  24.80000,
,,,-00.000019980000,  24.80000,
,,,-00.000019960000,  24.80000,
,,,-00.000019940000,  24.80000,
,,,-00.000019920000,  25.00000,
,,,-00.000019900000,  25.00000,
,,,-00.000019880000,  24.80000,
,,,-00.000019860000,  25.80000,
,,,-00.000019840000,  24.60000,
,,,-00.000019820000,  24.20000,
,,,-00.000019800000,  25.40000,
,,,-00.000019780000,  24.40000,
,,,-00.000019760000,  24.20000,
,,,-00.000019740000,  24.80000,
,,,-00.000019720000,  24.40000,
,,,-00.000019700000,  24.00000,
,,,-00.000019680000,  24.40000,
,,,-00.000019660000,  24.20000,
,,,-00.000019640000,  23.80000,
,,,-00.000019620000,  24.00000,
,,,-00.000019600000,  24.00000,
,,,-00.000019580000,  23.60000,
,,,-00.000019560000,  24.00000,
,,,-00.000019540000,  24.00000,
,,,-00.000019520000,  23.60000,
,,,-00.000019500000,  23.60000,
,,,-00.000019480000,  23.60000,
,,,-00.000019460000,  23.40000,
,,,-00.000019440000,  23.40000,
,,,-00.000019420000,  23.40000,
,,,-00.000019400000,  23.40000,
,,,-00.000019380000,  23.40000,
,,,-00.000019360000,  23.40000,
,,,-00.000019340000,  23.00000,
,,,-00.000019320000,  23.20000,
,,,-00.000019300000,  23.20000,
,,,-00.000019280000,  23.00000,
,,,-00.000019260000,  22.80000,
,,,-00.000019240000,  22.80000,
,,,-00.000019220000,  22.80000,
,,,-00.000019200000,  22.60000,
,,,-00.000019180000,  22.80000,
,,,-00.000019160000,  22.80000,
,,,-00.000019140000,  22.60000,
,,,-00.000019120000,  22.60000,
,,,-00.000019100000,  22.60000,
,,,-00.000019080000,  23.00000,
,,,-00.000019060000,  22.80000,
,,,-00.000019040000,  22.60000,
,,,-00.000019020000,  22.80000,
,,,-00.000019000000,  22.80000,
,,,-00.000018980000,  22.60000,
,,,-00.000018960000,  22.80000,
,,,-00.000018940000,  22.40000,
,,,-00.000018920000,  22.60000,
,,,-00.000018900000,  22.60000,
,,,-00.000018880000,  22.40000,
,,,-00.000018860000,  22.80000,
,,,-00.000018840000,  22.60000,
,,,-00.000018820000,  22.80000,
,,,-00.000018800000,  22.80000,
,,,-00.000018780000,  22.80000,
,,,-00.000018760000,  22.80000,
,,,-00.000018740000,  22.60000,
,,,-00.000018720000,  22.80000,
,,,-00.000018700000,  23.00000,
,,,-00.000018680000,  22.80000,
,,,-00.000018660000,  23.00000,
,,,-00.000018640000,  22.80000,
,,,-00.000018620000,  22.80000,
,,,-00.000018600000,  23.20000,
,,,-00.000018580000,  23.00000,
,,,-00.000018560000,  23.00000,
,,,-00.000018540000,  23.00000,
,,,-00.000018520000,  23.40000,
,,,-00.000018500000,  23.00000,
,,,-00.000018480000,  23.20000,
,,,-00.000018460000,  23.40000,
,,,-00.000018440000,  23.40000,
,,,-00.000018420000,  23.60000,
,,,-00.000018400000,  23.20000,
,,,-00.000018380000,  23.60000,
,,,-00.000018360000,  23.40000,
,,,-00.000018340000,  23.60000,
,,,-00.000018320000,  23.80000,
,,,-00.000018300000,  23.80000,
,,,-00.000018280000,  23.80000,
,,,-00.000018260000,  23.60000,
,,,-00.000018240000,  23.80000,
,,,-00.000018220000,  24.00000,
,,,-00.000018200000,  24.00000,
,,,-00.000018180000,  23.80000,
,,,-00.000018160000,  24.20000,
,,,-00.000018140000,  24.20000,
,,,-00.000018120000,  24.40000,
,,,-00.000018100000,  24.20000,
,,,-00.000018080000,  23.80000,
,,,-00.000018060000,  24.20000,
,,,-00.000018040000,  24.40000,
,,,-00.000018020000,  24.20000,
,,,-00.000018000000,  24.20000,
,,,-00.000017980000,  24.20000,
,,,-00.000017960000,  24.40000,
,,,-00.000017940000,  24.20000,
,,,-00.000017920000,  24.20000,
,,,-00.000017900000,  24.40000,
,,,-00.000017880000,  24.40000,
,,,-00.000017860000,  24.40000,
,,,-00.000017840000,  24.40000,
,,,-00.000017820000,  24.60000,
,,,-00.000017800000,  24.40000,
,,,-00.000017780000,  24.20000,
,,,-00.000017760000,  24.60000,
,,,-00.000017740000,  24.40000,
,,,-00.000017720000,  24.40000,
,,,-00.000017700000,  24.60000,
,,,-00.000017680000,  24.40000,
,,,-00.000017660000,  24.40000,
,,,-00.000017640000,  24.60000,
,,,-00.000017620000,  24.60000,
,,,-00.000017600000,  24.60000,
,,,-00.000017580000,  24.60000,
,,,-00.000017560000,  24.60000,
,,,-00.000017540000,  24.40000,
,,,-00.000017520000,  24.40000,
,,,-00.000017500000,  24.40000,
,,,-00.000017480000,  24.40000,
,,,-00.000017460000,  24.20000,
,,,-00.000017440000,  24.40000,
,,,-00.000017420000,  24.40000,
,,,-00.000017400000,  24.40000,
,,,-00.000017380000,  24.40000,
,,,-00.000017360000,  24.20000,
,,,-00.000017340000,  24.20000,
,,,-00.000017320000,  24.20000,
,,,-00.000017300000,  24.20000,
,,,-00.000017280000,  24.20000,
,,,-00.000017260000,  24.00000,
,,,-00.000017240000,  24.00000,
,,,-00.000017220000,  24.20000,
,,,-00.000017200000,  24.20000,
,,,-00.000017180000,  24.00000,
,,,-00.000017160000,  23.80000,
,,,-00.000017140000,  24.00000,
,,,-00.000017120000,  23.80000,
,,,-00.000017100000,  23.80000,
,,,-00.000017080000,  24.20000,
,,,-00.000017060000,  23.80000,
,,,-00.000017040000,  24.20000,
,,,-00.000017020000,  23.80000,
,,,-00.000017000000,  23.80000,
,,,-00.000016980000,  23.60000,
,,,-00.000016960000,  23.60000,
,,,-00.000016940000,  23.60000,
,,,-00.000016920000,  24.00000,
,,,-00.000016900000,  23.80000,
,,,-00.000016880000,  23.40000,
,,,-00.000016860000,  23.40000,
,,,-00.000016840000,  23.60000,
,,,-00.000016820000,  23.40000,
,,,-00.000016800000,  23.40000,
,,,-00.000016780000,  23.40000,
,,,-00.000016760000,  23.40000,
,,,-00.000016740000,  23.40000,
,,,-00.000016720000,  23.80000,
,,,-00.000016700000,  23.40000,
,,,-00.000016680000,  23.40000,
,,,-00.000016660000,  23.40000,
,,,-00.000016640000,  23.40000,
,,,-00.000016620000,  23.40000,
,,,-00.000016600000,  23.40000,
,,,-00.000016580000,  23.60000,
,,,-00.000016560000,  23.40000,
,,,-00.000016540000,  23.20000,
,,,-00.000016520000,  23.00000,
,,,-00.000016500000,  23.00000,
,,,-00.000016480000,  23.20000,
,,,-00.000016460000,  23.20000,
,,,-00.000016440000,  23.40000,
,,,-00.000016420000,  23.40000,
,,,-00.000016400000,  23.20000,
,,,-00.000016380000,  23.40000,
,,,-00.000016360000,  23.60000,
,,,-00.000016340000,  23.40000,
,,,-00.000016320000,  23.40000,
,,,-00.000016300000,  23.20000,
,,,-00.000016280000,  23.40000,
,,,-00.000016260000,  23.40000,
,,,-00.000016240000,  23.60000,
,,,-00.000016220000,  23.20000,
,,,-00.000016200000,  23.60000,
,,,-00.000016180000,  23.60000,
,,,-00.000016160000,  23.60000,
,,,-00.000016140000,  23.80000,
,,,-00.000016120000,  23.60000,
,,,-00.000016100000,  23.60000,
,,,-00.000016080000,  23.60000,
,,,-00.000016060000,  23.40000,
,,,-00.000016040000,  23.60000,
,,,-00.000016020000,  23.40000,
,,,-00.000016000000,  23.40000,
,,,-00.000015980000,  23.60000,
,,,-00.000015960000,  23.60000,
,,,-00.000015940000,  23.80000,
,,,-00.000015920000,  23.60000,
,,,-00.000015900000,  23.60000,
,,,-00.000015880000,  23.80000,
,,,-00.000015860000,  23.80000,
,,,-00.000015840000,  23.80000,
,,,-00.000015820000,  23.80000,
,,,-00.000015800000,  23.80000,
,,,-00.000015780000,  24.00000,
,,,-00.000015760000,  24.00000,
,,,-00.000015740000,  24.00000,
,,,-00.000015720000,  24.00000,
,,,-00.000015700000,  23.80000,
,,,-00.000015680000,  24.00000,
,,,-00.000015660000,  24.00000,
,,,-00.000015640000,  23.80000,
,,,-00.000015620000,  24.00000,
,,,-00.000015600000,  24.00000,
,,,-00.000015580000,  24.20000,
,,,-00.000015560000,  24.00000,
,,,-00.000015540000,  24.00000,
,,,-00.000015520000,  24.20000,
,,,-00.000015500000,  23.80000,
,,,-00.000015480000,  23.80000,
,,,-00.000015460000,  24.20000,
,,,-00.000015440000,  24.40000,
,,,-00.000015420000,  24.20000,
,,,-00.000015400000,  24.20000,
,,,-00.000015380000,  23.80000,
,,,-00.000015360000,  24.00000,
,,,-00.000015340000,  24.00000,
,,,-00.000015320000,  24.00000,
,,,-00.000015300000,  24.00000,
,,,-00.000015280000,  24.00000,
,,,-00.000015260000,  24.00000,
,,,-00.000015240000,  24.40000,
,,,-00.000015220000,  24.00000,
,,,-00.000015200000,  24.20000,
,,,-00.000015180000,  24.20000,
,,,-00.000015160000,  24.00000,
,,,-00.000015140000,  24.20000,
,,,-00.000015120000,  24.00000,
,,,-00.000015100000,  24.00000,
,,,-00.000015080000,  24.00000,
,,,-00.000015060000,  24.20000,
,,,-00.000015040000,  24.20000,
,,,-00.000015020000,  24.00000,
,,,-00.000015000000,  24.20000,
,,,-00.000014980000,  24.00000,
,,,-00.000014960000,  24.00000,
,,,-00.000014940000,  24.40000,
,,,-00.000014920000,  24.20000,
,,,-00.000014900000,  24.00000,
,,,-00.000014880000,  24.00000,
,,,-00.000014860000,  24.00000,
,,,-00.000014840000,  24.20000,
,,,-00.000014820000,  24.00000,
,,,-00.000014800000,  24.00000,
,,,-00.000014780000,  23.80000,
,,,-00.000014760000,  24.00000,
,,,-00.000014740000,  24.20000,
,,,-00.000014720000,  23.80000,
,,,-00.000014700000,  24.00000,
,,,-00.000014680000,  24.00000,
,,,-00.000014660000,  24.00000,
,,,-00.000014640000,  24.00000,
,,,-00.000014620000,  23.80000,
,,,-00.000014600000,  24.00000,
,,,-00.000014580000,  24.00000,
,,,-00.000014560000,  23.80000,
,,,-00.000014540000,  23.40000,
,,,-00.000014520000,  23.60000,
,,,-00.000014500000,  23.60000,
,,,-00.000014480000,  23.60000,
,,,-00.000014460000,  23.80000,
,,,-00.000014440000,  23.80000,
,,,-00.000014420000,  23.60000,
,,,-00.000014400000,  23.60000,
,,,-00.000014380000,  23.60000,
,,,-00.000014360000,  23.60000,
,,,-00.000014340000,  23.80000,
,,,-00.000014320000,  23.40000,
,,,-00.000014300000,  23.60000,
,,,-00.000014280000,  23.40000,
,,,-00.000014260000,  23.80000,
,,,-00.000014240000,  23.60000,
,,,-00.000014220000,  23.60000,
,,,-00.000014200000,  23.40000,
,,,-00.000014180000,  23.80000,
,,,-00.000014160000,  23.60000,
,,,-00.000014140000,  23.40000,
,,,-00.000014120000,  23.40000,
,,,-00.000014100000,  23.80000,
,,,-00.000014080000,  23.60000,
,,,-00.000014060000,  23.60000,
,,,-00.000014040000,  23.40000,
,,,-00.000014020000,  23.40000,
,,,-00.000014000000,  23.40000,
,,,-00.000013980000,  23.60000,
,,,-00.000013960000,  23.20000,
,,,-00.000013940000,  23.40000,
,,,-00.000013920000,  23.60000,
,,,-00.000013900000,  23.60000,
,,,-00.000013880000,  23.60000,
,,,-00.000013860000,  23.60000,
,,,-00.000013840000,  23.60000,
,,,-00.000013820000,  23.40000,
,,,-00.000013800000,  23.80000,
,,,-00.000013780000,  23.60000,
,,,-00.000013760000,  23.60000,
,,,-00.000013740000,  23.60000,
,,,-00.000013720000,  23.60000,
,,,-00.000013700000,  23.60000,
,,,-00.000013680000,  23.40000,
,,,-00.000013660000,  23.80000,
,,,-00.000013640000,  23.60000,
,,,-00.000013620000,  23.60000,
,,,-00.000013600000,  23.80000,
,,,-00.000013580000,  23.60000,
,,,-00.000013560000,  23.60000,
,,,-00.000013540000,  23.80000,
,,,-00.000013520000,  23.60000,
,,,-00.000013500000,  23.80000,
,,,-00.000013480000,  23.60000,
,,,-00.000013460000,  23.00000,
,,,-00.000013440000,  23.80000,
,,,-00.000013420000,  24.00000,
,,,-00.000013400000,  22.80000,
,,,-00.000013380000,  23.80000,
,,,-00.000013360000,  25.00000,
,,,-00.000013340000,  24.20000,
,,,-00.000013320000,  23.60000,
,,,-00.000013300000,  24.60000,
,,,-00.000013280000,  24.40000,
,,,-00.000013260000,  24.60000,
,,,-00.000013240000,  25.00000,
,,,-00.000013220000,  24.60000,
,,,-00.000013200000,  24.40000,
,,,-00.000013180000,  24.60000,
,,,-00.000013160000,  24.60000,
,,,-00.000013140000,  24.60000,
,,,-00.000013120000,  25.20000,
,,,-00.000013100000,  24.80000,
,,,-00.000013080000,  25.40000,
,,,-00.000013060000,  25.40000,
,,,-00.000013040000,  25.60000,
,,,-00.000013020000,  25.40000,
,,,-00.000013000000,  25.40000,
,,,-00.000012980000,  25.60000,
,,,-00.000012960000,  25.60000,
,,,-00.000012940000,  25.60000,
,,,-00.000012920000,  25.60000,
,,,-00.000012900000,  25.60000,
,,,-00.000012880000,  25.60000,
,,,-00.000012860000,  25.60000,
,,,-00.000012840000,  25.60000,
,,,-00.000012820000,  25.60000,
,,,-00.000012800000,  25.80000,
,,,-00.000012780000,  25.80000,
,,,-00.000012760000,  26.00000,
,,,-00.000012740000,  25.80000,
